<?xml version="1.0" encoding="utf-8"?>
<!-- Generator: Adobe Illustrator 16.0.0, SVG Export Plug-In . SVG Version: 6.00 Build 0)  -->
<!DOCTYPE svg PUBLIC "-//W3C//DTD SVG 1.1//EN" "http://www.w3.org/Graphics/SVG/1.1/DTD/svg11.dtd">
<svg version="1.1" id="圖層_1" xmlns="http://www.w3.org/2000/svg" xmlns:xlink="http://www.w3.org/1999/xlink" x="0px" y="0px"
	 width="32px" height="32px" viewBox="0 0 32 32" enable-background="new 0 0 32 32" xml:space="preserve">
<g>
	<g>
		<path fill="#000000" d="M30.788,24.002l-2.186,3.315c-0.141,0.046-0.729-0.259-1.764-0.918c-4.654-2.868-6.982-7.241-6.982-13.117
			V4.678H31v10.79h-6.277C24.723,19.089,26.744,21.932,30.788,24.002z"/>
	</g>
	<g>
		<path fill="#000000" d="M11.931,24.002l-2.187,3.315c-0.141,0.046-0.729-0.259-1.764-0.918C3.327,23.531,1,19.158,1,13.282V4.678
			h11.142v10.79H5.865C5.865,19.089,7.887,21.932,11.931,24.002z"/>
	</g>
</g>
</svg>
